{
    "artists" : {
        "href" : "https://api.spotify.com/v1/search?query=Muse&offset=0&limit=20&type=artist",
        "items" : [ {
                   "external_urls" : {
                   "spotify" : "https://open.spotify.com/artist/12Chz98pHFMPJEknJQMWvI"
                   },
                   "genres" : [ ],
                   "href" : "https://api.spotify.com/v1/artists/12Chz98pHFMPJEknJQMWvI",
                   "id" : "12Chz98pHFMPJEknJQMWvI",
                   "images" : [ {
                               "height" : 795,
                               "url" : "https://i.scdn.co/image/fadafc21ef4721a0666219a20c7ecd997f6b95d9",
                               "width" : 1000
                               }, {
                               "height" : 509,
                               "url" : "https://i.scdn.co/image/e47070e906297890cbd50862756070100127aa5d",
                               "width" : 640
                               }, {
                               "height" : 159,
                               "url" : "https://i.scdn.co/image/556bc16088fb5dc7eac18b4ec2bdaa635475e6d5",
                               "width" : 200
                               }, {
                               "height" : 51,
                               "url" : "https://i.scdn.co/image/589e1010856d245f3d9691ef9052be40325b8982",
                               "width" : 64
                               } ],
                   "name" : "Muse",
                   "popularity" : 65,
                   "type" : "artist",
                   "uri" : "spotify:artist:12Chz98pHFMPJEknJQMWvI"
                   }, {
                   "external_urls" : {
                   "spotify" : "https://open.spotify.com/artist/4L6i1I6tFpc1bKui5coGme"
                   },
                   "genres" : [ ],
                   "href" : "https://api.spotify.com/v1/artists/4L6i1I6tFpc1bKui5coGme",
                   "id" : "4L6i1I6tFpc1bKui5coGme",
                   "images" : [ {
                               "height" : 640,
                               "url" : "https://i.scdn.co/image/2bc67201ad4ed2d810185697d97da86aa7128e18",
                               "width" : 640
                               }, {
                               "height" : 300,
                               "url" : "https://i.scdn.co/image/0f56c509a60ad157b8d8d4a97aa346986a93ad83",
                               "width" : 300
                               }, {
                               "height" : 64,
                               "url" : "https://i.scdn.co/image/e81320b9325ead29a959b8ff94b3ee7709c50bbc",
                               "width" : 64
                               } ],
                   "name" : "Muse",
                   "popularity" : 17,
                   "type" : "artist",
                   "uri" : "spotify:artist:4L6i1I6tFpc1bKui5coGme"
                   }, {
                   "external_urls" : {
                   "spotify" : "https://open.spotify.com/artist/0oYf9u7u00PBfFUDY6B00U"
                   },
                   "genres" : [ ],
                   "href" : "https://api.spotify.com/v1/artists/0oYf9u7u00PBfFUDY6B00U",
                   "id" : "0oYf9u7u00PBfFUDY6B00U",
                   "images" : [ ],
                   "name" : "M.U.S.E.",
                   "popularity" : 0,
                   "type" : "artist",
                   "uri" : "spotify:artist:0oYf9u7u00PBfFUDY6B00U"
                   }, {
                   "external_urls" : {
                   "spotify" : "https://open.spotify.com/artist/1zFNYw5kgA7UEKWqNHf1Et"
                   },
                   "genres" : [ ],
                   "href" : "https://api.spotify.com/v1/artists/1zFNYw5kgA7UEKWqNHf1Et",
                   "id" : "1zFNYw5kgA7UEKWqNHf1Et",
                   "images" : [ {
                               "height" : 640,
                               "url" : "https://i.scdn.co/image/6ab7945c7d7991c6ea34fed072aca0feb73a3401",
                               "width" : 640
                               }, {
                               "height" : 300,
                               "url" : "https://i.scdn.co/image/043c94fbc253c41b81e513218114db5fab18d2c3",
                               "width" : 300
                               }, {
                               "height" : 64,
                               "url" : "https://i.scdn.co/image/5fd715d4c3e76d4da7cc6207f2a8585713fe793f",
                               "width" : 64
                               } ],
                   "name" : "Dangerous Muse",
                   "popularity" : 3,
                   "type" : "artist",
                   "uri" : "spotify:artist:1zFNYw5kgA7UEKWqNHf1Et"
                   }, {
                   "external_urls" : {
                   "spotify" : "https://open.spotify.com/artist/3uIGREwbP57eNOtcol8yrC"
                   },
                   "genres" : [ ],
                   "href" : "https://api.spotify.com/v1/artists/3uIGREwbP57eNOtcol8yrC",
                   "id" : "3uIGREwbP57eNOtcol8yrC",
                   "images" : [ {
                               "height" : 640,
                               "url" : "https://i.scdn.co/image/c3bfc0ab4b283a5c4a617849067847849e7b3516",
                               "width" : 640
                               }, {
                               "height" : 300,
                               "url" : "https://i.scdn.co/image/d3087b5129c87e219e9de217712b69eea401861c",
                               "width" : 300
                               }, {
                               "height" : 64,
                               "url" : "https://i.scdn.co/image/bf2be4443c0b007a87b7300afff2c1dd63540c18",
                               "width" : 64
                               } ],
                   "name" : "Celtic Muse",
                   "popularity" : 0,
                   "type" : "artist",
                   "uri" : "spotify:artist:3uIGREwbP57eNOtcol8yrC"
                   }, {
                   "external_urls" : {
                   "spotify" : "https://open.spotify.com/artist/2EM4Rcya7lu9c46B5gW3UI"
                   },
                   "genres" : [ ],
                   "href" : "https://api.spotify.com/v1/artists/2EM4Rcya7lu9c46B5gW3UI",
                   "id" : "2EM4Rcya7lu9c46B5gW3UI",
                   "images" : [ {
                               "height" : 640,
                               "url" : "https://i.scdn.co/image/95c947b3754f61a08415255e39143da0089cc92d",
                               "width" : 640
                               }, {
                               "height" : 300,
                               "url" : "https://i.scdn.co/image/bf422e1760007126cecca4c86e6769d6e0a1ea09",
                               "width" : 300
                               }, {
                               "height" : 64,
                               "url" : "https://i.scdn.co/image/38e976bb5d3d484f0d43b5bd8df89aa3c640462d",
                               "width" : 64
                               } ],
                   "name" : "Muse Stew",
                   "popularity" : 0,
                   "type" : "artist",
                   "uri" : "spotify:artist:2EM4Rcya7lu9c46B5gW3UI"
                   }, {
                   "external_urls" : {
                   "spotify" : "https://open.spotify.com/artist/4FsZho8WzylmPwSasWI5mD"
                   },
                   "genres" : [ ],
                   "href" : "https://api.spotify.com/v1/artists/4FsZho8WzylmPwSasWI5mD",
                   "id" : "4FsZho8WzylmPwSasWI5mD",
                   "images" : [ ],
                   "name" : "J Muse",
                   "popularity" : 0,
                   "type" : "artist",
                   "uri" : "spotify:artist:4FsZho8WzylmPwSasWI5mD"
                   }, {
                   "external_urls" : {
                   "spotify" : "https://open.spotify.com/artist/2dQhTWvpKGwInQ4QUbDOdb"
                   },
                   "genres" : [ ],
                   "href" : "https://api.spotify.com/v1/artists/2dQhTWvpKGwInQ4QUbDOdb",
                   "id" : "2dQhTWvpKGwInQ4QUbDOdb",
                   "images" : [ {
                               "height" : 640,
                               "url" : "https://i.scdn.co/image/a895ac9a6e050fb001b57f34278b942c064730d2",
                               "width" : 640
                               }, {
                               "height" : 300,
                               "url" : "https://i.scdn.co/image/7d7e91294f039d1cb63a3d72928dc51bfc00c64d",
                               "width" : 300
                               }, {
                               "height" : 64,
                               "url" : "https://i.scdn.co/image/e96c7e938d235136ddbf95727f2d738383d3e20a",
                               "width" : 64
                               } ],
                   "name" : "Orange Muse",
                   "popularity" : 0,
                   "type" : "artist",
                   "uri" : "spotify:artist:2dQhTWvpKGwInQ4QUbDOdb"
                   }, {
                   "external_urls" : {
                   "spotify" : "https://open.spotify.com/artist/5LkRK3RLauOU3LjwZOnc5j"
                   },
                   "genres" : [ ],
                   "href" : "https://api.spotify.com/v1/artists/5LkRK3RLauOU3LjwZOnc5j",
                   "id" : "5LkRK3RLauOU3LjwZOnc5j",
                   "images" : [ {
                               "height" : 640,
                               "url" : "https://i.scdn.co/image/a2c757ea04d46200b264216cff055fa0401f3a26",
                               "width" : 640
                               }, {
                               "height" : 300,
                               "url" : "https://i.scdn.co/image/202cb781471d86395bd878481bc4903179a1eb66",
                               "width" : 300
                               }, {
                               "height" : 64,
                               "url" : "https://i.scdn.co/image/262a230154e4c1135dff58abd08a0da806cf7c32",
                               "width" : 64
                               } ],
                   "name" : "Muse Dalbray",
                   "popularity" : 0,
                   "type" : "artist",
                   "uri" : "spotify:artist:5LkRK3RLauOU3LjwZOnc5j"
                   }, {
                   "external_urls" : {
                   "spotify" : "https://open.spotify.com/artist/0KxsXvg8kGy83GS3HqXAsv"
                   },
                   "genres" : [ ],
                   "href" : "https://api.spotify.com/v1/artists/0KxsXvg8kGy83GS3HqXAsv",
                   "id" : "0KxsXvg8kGy83GS3HqXAsv",
                   "images" : [ ],
                   "name" : "Nexus Muse",
                   "popularity" : 0,
                   "type" : "artist",
                   "uri" : "spotify:artist:0KxsXvg8kGy83GS3HqXAsv"
                   }, {
                   "external_urls" : {
                   "spotify" : "https://open.spotify.com/artist/0X6WgPVJzfmkgupc9tSPCt"
                   },
                   "genres" : [ ],
                   "href" : "https://api.spotify.com/v1/artists/0X6WgPVJzfmkgupc9tSPCt",
                   "id" : "0X6WgPVJzfmkgupc9tSPCt",
                   "images" : [ ],
                   "name" : "Vincent Muse",
                   "popularity" : 0,
                   "type" : "artist",
                   "uri" : "spotify:artist:0X6WgPVJzfmkgupc9tSPCt"
                   }, {
                   "external_urls" : {
                   "spotify" : "https://open.spotify.com/artist/5rXBYEvS3rAgsQvi6H48gm"
                   },
                   "genres" : [ ],
                   "href" : "https://api.spotify.com/v1/artists/5rXBYEvS3rAgsQvi6H48gm",
                   "id" : "5rXBYEvS3rAgsQvi6H48gm",
                   "images" : [ {
                               "height" : 600,
                               "url" : "https://i.scdn.co/image/7bfc7b31b7960b56c7258eba93f010de118b6f12",
                               "width" : 600
                               }, {
                               "height" : 300,
                               "url" : "https://i.scdn.co/image/8557d2daad3dae2c168305721f87d90c1712833d",
                               "width" : 300
                               }, {
                               "height" : 64,
                               "url" : "https://i.scdn.co/image/325f1b1a54bcf1f23421eb5c198fed74e3449477",
                               "width" : 64
                               } ],
                   "name" : "Johnny Muse",
                   "popularity" : 0,
                   "type" : "artist",
                   "uri" : "spotify:artist:5rXBYEvS3rAgsQvi6H48gm"
                   }, {
                   "external_urls" : {
                   "spotify" : "https://open.spotify.com/artist/1ny1u1trxm9EdrvglZm30h"
                   },
                   "genres" : [ ],
                   "href" : "https://api.spotify.com/v1/artists/1ny1u1trxm9EdrvglZm30h",
                   "id" : "1ny1u1trxm9EdrvglZm30h",
                   "images" : [ {
                               "height" : 640,
                               "url" : "https://i.scdn.co/image/3c72762deb5b971eb50e4b7ef2a206c647a46ce7",
                               "width" : 640
                               }, {
                               "height" : 300,
                               "url" : "https://i.scdn.co/image/b70ea8dcc2eff1455c9790c5b0ca133f7fdc00f2",
                               "width" : 300
                               }, {
                               "height" : 64,
                               "url" : "https://i.scdn.co/image/c860c62a93127931c751853e029dd4ed804919bb",
                               "width" : 64
                               } ],
                   "name" : "Ruby Muse",
                   "popularity" : 0,
                   "type" : "artist",
                   "uri" : "spotify:artist:1ny1u1trxm9EdrvglZm30h"
                   }, {
                   "external_urls" : {
                   "spotify" : "https://open.spotify.com/artist/4nxsiEZEqHdOZIcx96h28q"
                   },
                   "genres" : [ ],
                   "href" : "https://api.spotify.com/v1/artists/4nxsiEZEqHdOZIcx96h28q",
                   "id" : "4nxsiEZEqHdOZIcx96h28q",
                   "images" : [ {
                               "height" : 640,
                               "url" : "https://i.scdn.co/image/4503760b8af86e5d9bff666430fcb9b72bb0fb62",
                               "width" : 640
                               }, {
                               "height" : 300,
                               "url" : "https://i.scdn.co/image/058e67bb4476b449760dc94bb1b0471ee4741b6b",
                               "width" : 300
                               }, {
                               "height" : 64,
                               "url" : "https://i.scdn.co/image/6233ae0bd07b556946512b6cf52ff43a2ed07f4f",
                               "width" : 64
                               } ],
                   "name" : "Workout Muse",
                   "popularity" : 0,
                   "type" : "artist",
                   "uri" : "spotify:artist:4nxsiEZEqHdOZIcx96h28q"
                   }, {
                   "external_urls" : {
                   "spotify" : "https://open.spotify.com/artist/5niLzkHh5JuHCJLM6VaoV4"
                   },
                   "genres" : [ ],
                   "href" : "https://api.spotify.com/v1/artists/5niLzkHh5JuHCJLM6VaoV4",
                   "id" : "5niLzkHh5JuHCJLM6VaoV4",
                   "images" : [ ],
                   "name" : "Clarence Muse",
                   "popularity" : 0,
                   "type" : "artist",
                   "uri" : "spotify:artist:5niLzkHh5JuHCJLM6VaoV4"
                   }, {
                   "external_urls" : {
                   "spotify" : "https://open.spotify.com/artist/7mLzYWWkMy11qr1hc2OrBO"
                   },
                   "genres" : [ ],
                   "href" : "https://api.spotify.com/v1/artists/7mLzYWWkMy11qr1hc2OrBO",
                   "id" : "7mLzYWWkMy11qr1hc2OrBO",
                   "images" : [ {
                               "height" : 640,
                               "url" : "https://i.scdn.co/image/e83aef07c1a99ba81f3db5516ebad867f2470238",
                               "width" : 640
                               }, {
                               "height" : 300,
                               "url" : "https://i.scdn.co/image/17589df774dddbbffbfcbb1b7a9d71416408c9ef",
                               "width" : 300
                               }, {
                               "height" : 64,
                               "url" : "https://i.scdn.co/image/15cec2c9ff16e5e3d4bc4ef5cb24d3f63e585863",
                               "width" : 64
                               } ],
                   "name" : "Marty Muse",
                   "popularity" : 0,
                   "type" : "artist",
                   "uri" : "spotify:artist:7mLzYWWkMy11qr1hc2OrBO"
                   }, {
                   "external_urls" : {
                   "spotify" : "https://open.spotify.com/artist/54JCLFFX3r98SrHf6tlLPo"
                   },
                   "genres" : [ ],
                   "href" : "https://api.spotify.com/v1/artists/54JCLFFX3r98SrHf6tlLPo",
                   "id" : "54JCLFFX3r98SrHf6tlLPo",
                   "images" : [ {
                               "height" : 640,
                               "url" : "https://i.scdn.co/image/7624049a0668184d2f681a2ba7033499827c0304",
                               "width" : 640
                               }, {
                               "height" : 300,
                               "url" : "https://i.scdn.co/image/51d54b4964e75ea26e125dd79fe5d49813b2bc82",
                               "width" : 300
                               }, {
                               "height" : 64,
                               "url" : "https://i.scdn.co/image/5c01d7df0fd4eba8152b67e0165dd5b3bcea2975",
                               "width" : 64
                               } ],
                   "name" : "Calliope Muse",
                   "popularity" : 0,
                   "type" : "artist",
                   "uri" : "spotify:artist:54JCLFFX3r98SrHf6tlLPo"
                   }, {
                   "external_urls" : {
                   "spotify" : "https://open.spotify.com/artist/29lUgGwCLU6q3VopDPssnE"
                   },
                   "genres" : [ ],
                   "href" : "https://api.spotify.com/v1/artists/29lUgGwCLU6q3VopDPssnE",
                   "id" : "29lUgGwCLU6q3VopDPssnE",
                   "images" : [ {
                               "height" : 600,
                               "url" : "https://i.scdn.co/image/34a55c49c9355597d3ce4f6766e0a35d6fd32779",
                               "width" : 600
                               }, {
                               "height" : 300,
                               "url" : "https://i.scdn.co/image/26d69becb9f35f58087bf4a2f23dc7297d7e2cf2",
                               "width" : 300
                               }, {
                               "height" : 64,
                               "url" : "https://i.scdn.co/image/3e0ddacfb652111ade4a20fbd5493ebd36a65b16",
                               "width" : 64
                               } ],
                   "name" : "Bio Muse",
                   "popularity" : 0,
                   "type" : "artist",
                   "uri" : "spotify:artist:29lUgGwCLU6q3VopDPssnE"
                   }, {
                   "external_urls" : {
                   "spotify" : "https://open.spotify.com/artist/3voL9YOH7iqv5HkJe5Dui7"
                   },
                   "genres" : [ ],
                   "href" : "https://api.spotify.com/v1/artists/3voL9YOH7iqv5HkJe5Dui7",
                   "id" : "3voL9YOH7iqv5HkJe5Dui7",
                   "images" : [ {
                               "height" : 640,
                               "url" : "https://i.scdn.co/image/60b6cd7278c4da9de6681c66b0efcd77e48dd5b9",
                               "width" : 640
                               }, {
                               "height" : 300,
                               "url" : "https://i.scdn.co/image/e33e9818a8fe98516d12c1ecd4ca63c85915218c",
                               "width" : 300
                               }, {
                               "height" : 64,
                               "url" : "https://i.scdn.co/image/58376066d3077fcd81293acd8dbe112f8680edf0",
                               "width" : 64
                               } ],
                   "name" : "Kelsey Muse",
                   "popularity" : 0,
                   "type" : "artist",
                   "uri" : "spotify:artist:3voL9YOH7iqv5HkJe5Dui7"
                   }, {
                   "external_urls" : {
                   "spotify" : "https://open.spotify.com/artist/2jOyRSYhPfbyRxK9jwRmUe"
                   },
                   "genres" : [ ],
                   "href" : "https://api.spotify.com/v1/artists/2jOyRSYhPfbyRxK9jwRmUe",
                   "id" : "2jOyRSYhPfbyRxK9jwRmUe",
                   "images" : [ ],
                   "name" : "Simon Muse",
                   "popularity" : 0,
                   "type" : "artist",
                   "uri" : "spotify:artist:2jOyRSYhPfbyRxK9jwRmUe"
                   } ],
        "limit" : 20,
        "next" : "https://api.spotify.com/v1/search?query=Muse&offset=20&limit=20&type=artist",
        "offset" : 0,
        "previous" : null,
        "total" : 94
    }
}
